<?xml version="1.0" encoding="UTF-8" standalone="no"?>
<!-- Created with Inkscape (http://www.inkscape.org/) -->

<svg
   xmlns:dc="http://purl.org/dc/elements/1.1/"
   xmlns:cc="http://creativecommons.org/ns#"
   xmlns:rdf="http://www.w3.org/1999/02/22-rdf-syntax-ns#"
   xmlns:svg="http://www.w3.org/2000/svg"
   xmlns="http://www.w3.org/2000/svg"
   xmlns:sodipodi="http://sodipodi.sourceforge.net/DTD/sodipodi-0.dtd"
   xmlns:inkscape="http://www.inkscape.org/namespaces/inkscape"
   width="512"
   height="512"
   id="svg2"
   version="1.1"
   inkscape:version="0.48.4 r9939"
   sodipodi:docname="face.svg">
  <defs
     id="defs4" />
  <sodipodi:namedview
     id="base"
     pagecolor="#ffffff"
     bordercolor="#666666"
     borderopacity="1.0"
     inkscape:pageopacity="0.0"
     inkscape:pageshadow="2"
     inkscape:zoom="1.4"
     inkscape:cx="178.55263"
     inkscape:cy="198.33896"
     inkscape:document-units="px"
     inkscape:current-layer="layer5"
     showgrid="true"
     inkscape:window-width="1366"
     inkscape:window-height="716"
     inkscape:window-x="0"
     inkscape:window-y="31"
     inkscape:window-maximized="1">
    <inkscape:grid
       type="xygrid"
       id="grid2985"
       empspacing="4"
       visible="true"
       enabled="true"
       snapvisiblegridlinesonly="true"
       spacingx="16px"
       spacingy="16px" />
  </sodipodi:namedview>
  <metadata
     id="metadata7">
    <rdf:RDF>
      <cc:Work
         rdf:about="">
        <dc:format>image/svg+xml</dc:format>
        <dc:type
           rdf:resource="http://purl.org/dc/dcmitype/StillImage" />
        <dc:title />
      </cc:Work>
    </rdf:RDF>
  </metadata>
  <g
     inkscape:label="head pale"
     inkscape:groupmode="layer"
     id="layer1"
     transform="translate(0,-540.36218)"
     style="display:inline">
    <path
       sodipodi:type="arc"
       style="fill:#e9c6af;stroke:#000000;stroke-width:18.75;stroke-miterlimit:4;stroke-dasharray:none"
       id="path2989"
       sodipodi:cx="256"
       sodipodi:cy="288"
       sodipodi:rx="192"
       sodipodi:ry="160"
       d="m 448,288 c 0,88.36556 -85.96133,160 -192,160 -106.03867,0 -192,-71.63444 -192,-160 0,-88.36556 85.96133,-160 192,-160 106.03867,0 192,71.63444 192,160 z"
       transform="translate(0,540.36218)" />
    <g
       id="g3134">
      <path
         sodipodi:type="arc"
         style="fill:#ffffff;stroke:none;display:inline"
         id="path3112"
         sodipodi:cx="168"
         sodipodi:cy="256"
         sodipodi:rx="24"
         sodipodi:ry="32"
         d="m 192,256 c 0,17.67311 -10.74517,32 -24,32 -13.25483,0 -24,-14.32689 -24,-32 0,-17.67311 10.74517,-32 24,-32 13.25483,0 24,14.32689 24,32 z"
         transform="matrix(0.45099342,-0.45099342,0.45099342,0.45099342,179.81724,702.96993)" />
      <path
         transform="matrix(0.19516409,-0.33803413,0.33803413,0.19516409,211.71417,717.48507)"
         d="m 192,256 c 0,17.67311 -10.74517,32 -24,32 -13.25483,0 -24,-14.32689 -24,-32 0,-17.67311 10.74517,-32 24,-32 13.25483,0 24,14.32689 24,32 z"
         sodipodi:ry="32"
         sodipodi:rx="24"
         sodipodi:cy="256"
         sodipodi:cx="168"
         id="path3132"
         style="fill:#ffffff;stroke:none;display:inline"
         sodipodi:type="arc" />
    </g>
  </g>
  <g
     style="display:none"
     transform="translate(0,-540.36218)"
     id="g3089"
     inkscape:groupmode="layer"
     inkscape:label="head tan">
    <path
       transform="translate(0,540.36218)"
       d="m 448,288 c 0,88.36556 -85.96133,160 -192,160 -106.03867,0 -192,-71.63444 -192,-160 0,-88.36556 85.96133,-160 192,-160 106.03867,0 192,71.63444 192,160 z"
       sodipodi:ry="160"
       sodipodi:rx="192"
       sodipodi:cy="288"
       sodipodi:cx="256"
       id="path3091"
       style="fill:#d38d5f;stroke:#000000;stroke-width:18.75;stroke-miterlimit:4;stroke-dasharray:none"
       sodipodi:type="arc" />
    <g
       transform="translate(1.7965835e-4,3.0569984e-5)"
       style="display:inline"
       id="g3134-6">
      <path
         sodipodi:type="arc"
         style="fill:#ffffff;stroke:none;display:inline"
         id="path3112-6"
         sodipodi:cx="168"
         sodipodi:cy="256"
         sodipodi:rx="24"
         sodipodi:ry="32"
         d="m 192,256 c 0,17.67311 -10.74517,32 -24,32 -13.25483,0 -24,-14.32689 -24,-32 0,-17.67311 10.74517,-32 24,-32 13.25483,0 24,14.32689 24,32 z"
         transform="matrix(0.45099342,-0.45099342,0.45099342,0.45099342,179.81724,702.96993)" />
      <path
         transform="matrix(0.19516409,-0.33803413,0.33803413,0.19516409,211.71417,717.48507)"
         d="m 192,256 c 0,17.67311 -10.74517,32 -24,32 -13.25483,0 -24,-14.32689 -24,-32 0,-17.67311 10.74517,-32 24,-32 13.25483,0 24,14.32689 24,32 z"
         sodipodi:ry="32"
         sodipodi:rx="24"
         sodipodi:cy="256"
         sodipodi:cx="168"
         id="path3132-9"
         style="fill:#ffffff;stroke:none;display:inline"
         sodipodi:type="arc" />
    </g>
  </g>
  <g
     transform="translate(0,-540.36218)"
     id="g3085"
     inkscape:groupmode="layer"
     inkscape:label="head dark"
     style="display:none">
    <path
       transform="translate(0,540.36218)"
       d="m 448,288 c 0,88.36556 -85.96133,160 -192,160 -106.03867,0 -192,-71.63444 -192,-160 0,-88.36556 85.96133,-160 192,-160 106.03867,0 192,71.63444 192,160 z"
       sodipodi:ry="160"
       sodipodi:rx="192"
       sodipodi:cy="288"
       sodipodi:cx="256"
       id="path3087"
       style="fill:#784421;stroke:#000000;stroke-width:18.75;stroke-miterlimit:4;stroke-dasharray:none"
       sodipodi:type="arc" />
    <g
       transform="translate(1.7965835e-4,3.0569985e-5)"
       style="display:inline"
       id="g3134-2">
      <path
         sodipodi:type="arc"
         style="fill:#ffffff;stroke:none;display:inline"
         id="path3112-7"
         sodipodi:cx="168"
         sodipodi:cy="256"
         sodipodi:rx="24"
         sodipodi:ry="32"
         d="m 192,256 c 0,17.67311 -10.74517,32 -24,32 -13.25483,0 -24,-14.32689 -24,-32 0,-17.67311 10.74517,-32 24,-32 13.25483,0 24,14.32689 24,32 z"
         transform="matrix(0.45099342,-0.45099342,0.45099342,0.45099342,179.81724,702.96993)" />
      <path
         transform="matrix(0.19516409,-0.33803413,0.33803413,0.19516409,211.71417,717.48507)"
         d="m 192,256 c 0,17.67311 -10.74517,32 -24,32 -13.25483,0 -24,-14.32689 -24,-32 0,-17.67311 10.74517,-32 24,-32 13.25483,0 24,14.32689 24,32 z"
         sodipodi:ry="32"
         sodipodi:rx="24"
         sodipodi:cy="256"
         sodipodi:cx="168"
         id="path3132-5"
         style="fill:#ffffff;stroke:none;display:inline"
         sodipodi:type="arc" />
    </g>
  </g>
  <g
     style="display:none"
     inkscape:label="head green"
     inkscape:groupmode="layer"
     id="g3093"
     transform="translate(0,-540.36218)">
    <path
       sodipodi:type="arc"
       style="fill:#87de87;stroke:#000000;stroke-width:18.75;stroke-miterlimit:4;stroke-dasharray:none"
       id="path3095"
       sodipodi:cx="256"
       sodipodi:cy="288"
       sodipodi:rx="192"
       sodipodi:ry="160"
       d="m 448,288 c 0,88.36556 -85.96133,160 -192,160 -106.03867,0 -192,-71.63444 -192,-160 0,-88.36556 85.96133,-160 192,-160 106.03867,0 192,71.63444 192,160 z"
       transform="translate(0,540.36218)" />
    <g
       transform="translate(1.7965835e-4,3.0569985e-5)"
       style="display:inline"
       id="g3134-68">
      <path
         sodipodi:type="arc"
         style="fill:#ffffff;stroke:none;display:inline"
         id="path3112-0"
         sodipodi:cx="168"
         sodipodi:cy="256"
         sodipodi:rx="24"
         sodipodi:ry="32"
         d="m 192,256 c 0,17.67311 -10.74517,32 -24,32 -13.25483,0 -24,-14.32689 -24,-32 0,-17.67311 10.74517,-32 24,-32 13.25483,0 24,14.32689 24,32 z"
         transform="matrix(0.45099342,-0.45099342,0.45099342,0.45099342,179.81724,702.96993)" />
      <path
         transform="matrix(0.19516409,-0.33803413,0.33803413,0.19516409,211.71417,717.48507)"
         d="m 192,256 c 0,17.67311 -10.74517,32 -24,32 -13.25483,0 -24,-14.32689 -24,-32 0,-17.67311 10.74517,-32 24,-32 13.25483,0 24,14.32689 24,32 z"
         sodipodi:ry="32"
         sodipodi:rx="24"
         sodipodi:cy="256"
         sodipodi:cx="168"
         id="path3132-1"
         style="fill:#ffffff;stroke:none;display:inline"
         sodipodi:type="arc" />
    </g>
  </g>
  <g
     transform="translate(0,-540.36218)"
     id="g3097"
     inkscape:groupmode="layer"
     inkscape:label="head white"
     style="display:none">
    <path
       transform="translate(0,540.36218)"
       d="m 448,288 c 0,88.36556 -85.96133,160 -192,160 -106.03867,0 -192,-71.63444 -192,-160 0,-88.36556 85.96133,-160 192,-160 106.03867,0 192,71.63444 192,160 z"
       sodipodi:ry="160"
       sodipodi:rx="192"
       sodipodi:cy="288"
       sodipodi:cx="256"
       id="path3099"
       style="fill:#e6e6e6;stroke:#000000;stroke-width:18.75;stroke-miterlimit:4;stroke-dasharray:none"
       sodipodi:type="arc" />
    <g
       transform="translate(1.7965835e-4,3.0569985e-5)"
       style="display:inline"
       id="g3134-8">
      <path
         sodipodi:type="arc"
         style="fill:#ffffff;stroke:none;display:inline"
         id="path3112-3"
         sodipodi:cx="168"
         sodipodi:cy="256"
         sodipodi:rx="24"
         sodipodi:ry="32"
         d="m 192,256 c 0,17.67311 -10.74517,32 -24,32 -13.25483,0 -24,-14.32689 -24,-32 0,-17.67311 10.74517,-32 24,-32 13.25483,0 24,14.32689 24,32 z"
         transform="matrix(0.45099342,-0.45099342,0.45099342,0.45099342,179.81724,702.96993)" />
      <path
         transform="matrix(0.19516409,-0.33803413,0.33803413,0.19516409,211.71417,717.48507)"
         d="m 192,256 c 0,17.67311 -10.74517,32 -24,32 -13.25483,0 -24,-14.32689 -24,-32 0,-17.67311 10.74517,-32 24,-32 13.25483,0 24,14.32689 24,32 z"
         sodipodi:ry="32"
         sodipodi:rx="24"
         sodipodi:cy="256"
         sodipodi:cx="168"
         id="path3132-0"
         style="fill:#ffffff;stroke:none;display:inline"
         sodipodi:type="arc" />
    </g>
  </g>
  <g
     style="display:none"
     inkscape:label="head red"
     inkscape:groupmode="layer"
     id="g3101"
     transform="translate(0,-540.36218)">
    <path
       sodipodi:type="arc"
       style="fill:#d35f5f;stroke:#000000;stroke-width:18.75;stroke-miterlimit:4;stroke-dasharray:none"
       id="path3103"
       sodipodi:cx="256"
       sodipodi:cy="288"
       sodipodi:rx="192"
       sodipodi:ry="160"
       d="m 448,288 c 0,88.36556 -85.96133,160 -192,160 -106.03867,0 -192,-71.63444 -192,-160 0,-88.36556 85.96133,-160 192,-160 106.03867,0 192,71.63444 192,160 z"
       transform="translate(0,540.36218)" />
    <g
       transform="translate(1.7965835e-4,3.0569985e-5)"
       style="display:inline"
       id="g3134-3">
      <path
         sodipodi:type="arc"
         style="fill:#ffffff;stroke:none;display:inline"
         id="path3112-4"
         sodipodi:cx="168"
         sodipodi:cy="256"
         sodipodi:rx="24"
         sodipodi:ry="32"
         d="m 192,256 c 0,17.67311 -10.74517,32 -24,32 -13.25483,0 -24,-14.32689 -24,-32 0,-17.67311 10.74517,-32 24,-32 13.25483,0 24,14.32689 24,32 z"
         transform="matrix(0.45099342,-0.45099342,0.45099342,0.45099342,179.81724,702.96993)" />
      <path
         transform="matrix(0.19516409,-0.33803413,0.33803413,0.19516409,211.71417,717.48507)"
         d="m 192,256 c 0,17.67311 -10.74517,32 -24,32 -13.25483,0 -24,-14.32689 -24,-32 0,-17.67311 10.74517,-32 24,-32 13.25483,0 24,14.32689 24,32 z"
         sodipodi:ry="32"
         sodipodi:rx="24"
         sodipodi:cy="256"
         sodipodi:cx="168"
         id="path3132-93"
         style="fill:#ffffff;stroke:none;display:inline"
         sodipodi:type="arc" />
    </g>
  </g>
  <g
     transform="translate(0,-540.36218)"
     id="g3105"
     inkscape:groupmode="layer"
     inkscape:label="head blue"
     style="display:none">
    <path
       transform="translate(0,540.36218)"
       d="m 448,288 c 0,88.36556 -85.96133,160 -192,160 -106.03867,0 -192,-71.63444 -192,-160 0,-88.36556 85.96133,-160 192,-160 106.03867,0 192,71.63444 192,160 z"
       sodipodi:ry="160"
       sodipodi:rx="192"
       sodipodi:cy="288"
       sodipodi:cx="256"
       id="path3107"
       style="fill:#aaccff;stroke:#000000;stroke-width:18.75;stroke-miterlimit:4;stroke-dasharray:none"
       sodipodi:type="arc" />
    <g
       transform="translate(1.7965835e-4,3.0569985e-5)"
       style="display:inline"
       id="g3134-9">
      <path
         sodipodi:type="arc"
         style="fill:#ffffff;stroke:none;display:inline"
         id="path3112-60"
         sodipodi:cx="168"
         sodipodi:cy="256"
         sodipodi:rx="24"
         sodipodi:ry="32"
         d="m 192,256 c 0,17.67311 -10.74517,32 -24,32 -13.25483,0 -24,-14.32689 -24,-32 0,-17.67311 10.74517,-32 24,-32 13.25483,0 24,14.32689 24,32 z"
         transform="matrix(0.45099342,-0.45099342,0.45099342,0.45099342,179.81724,702.96993)" />
      <path
         transform="matrix(0.19516409,-0.33803413,0.33803413,0.19516409,211.71417,717.48507)"
         d="m 192,256 c 0,17.67311 -10.74517,32 -24,32 -13.25483,0 -24,-14.32689 -24,-32 0,-17.67311 10.74517,-32 24,-32 13.25483,0 24,14.32689 24,32 z"
         sodipodi:ry="32"
         sodipodi:rx="24"
         sodipodi:cy="256"
         sodipodi:cx="168"
         id="path3132-3"
         style="fill:#ffffff;stroke:none;display:inline"
         sodipodi:type="arc" />
    </g>
  </g>
  <g
     style="display:none"
     inkscape:label="head purple"
     inkscape:groupmode="layer"
     id="g3109"
     transform="translate(0,-540.36218)">
    <path
       sodipodi:type="arc"
       style="fill:#8787de;stroke:#000000;stroke-width:18.75;stroke-miterlimit:4;stroke-dasharray:none"
       id="path3111"
       sodipodi:cx="256"
       sodipodi:cy="288"
       sodipodi:rx="192"
       sodipodi:ry="160"
       d="m 448,288 c 0,88.36556 -85.96133,160 -192,160 -106.03867,0 -192,-71.63444 -192,-160 0,-88.36556 85.96133,-160 192,-160 106.03867,0 192,71.63444 192,160 z"
       transform="translate(0,540.36218)" />
    <g
       transform="translate(1.7965835e-4,3.0569985e-5)"
       style="display:inline"
       id="g3134-4">
      <path
         sodipodi:type="arc"
         style="fill:#ffffff;stroke:none;display:inline"
         id="path3112-2"
         sodipodi:cx="168"
         sodipodi:cy="256"
         sodipodi:rx="24"
         sodipodi:ry="32"
         d="m 192,256 c 0,17.67311 -10.74517,32 -24,32 -13.25483,0 -24,-14.32689 -24,-32 0,-17.67311 10.74517,-32 24,-32 13.25483,0 24,14.32689 24,32 z"
         transform="matrix(0.45099342,-0.45099342,0.45099342,0.45099342,179.81724,702.96993)" />
      <path
         transform="matrix(0.19516409,-0.33803413,0.33803413,0.19516409,211.71417,717.48507)"
         d="m 192,256 c 0,17.67311 -10.74517,32 -24,32 -13.25483,0 -24,-14.32689 -24,-32 0,-17.67311 10.74517,-32 24,-32 13.25483,0 24,14.32689 24,32 z"
         sodipodi:ry="32"
         sodipodi:rx="24"
         sodipodi:cy="256"
         sodipodi:cx="168"
         id="path3132-2"
         style="fill:#ffffff;stroke:none;display:inline"
         sodipodi:type="arc" />
    </g>
  </g>
  <g
     inkscape:groupmode="layer"
     id="layer3"
     inkscape:label="eyes open"
     style="display:inline">
    <path
       sodipodi:type="arc"
       style="fill:#000000;stroke:#000000;stroke-width:18.75;stroke-miterlimit:4;stroke-dasharray:none"
       id="path3789"
       sodipodi:cx="168"
       sodipodi:cy="256"
       sodipodi:rx="24"
       sodipodi:ry="32"
       d="m 192,256 a 24,32 0 1 1 -48,0 24,32 0 1 1 48,0 z"
       transform="translate(46.467017,15.152288)" />
    <path
       transform="matrix(0.89189188,0,0,0.89189188,162.62918,42.827964)"
       d="m 192,256 a 24,32 0 1 1 -48,0 24,32 0 1 1 48,0 z"
       sodipodi:ry="32"
       sodipodi:rx="24"
       sodipodi:cy="256"
       sodipodi:cx="168"
       id="path3791"
       style="fill:#000000;stroke:#000000;stroke-width:21.02272797;stroke-miterlimit:4;stroke-dasharray:none"
       sodipodi:type="arc" />
    <path
       transform="matrix(0.57960927,-0.15530583,0.15530583,0.57960927,83.33438,136.29228)"
       d="m 192,256 a 24,32 0 1 1 -48,0 24,32 0 1 1 48,0 z"
       sodipodi:ry="32"
       sodipodi:rx="24"
       sodipodi:cy="256"
       sodipodi:cx="168"
       id="path3104"
       style="fill:#ffffff;stroke:none"
       sodipodi:type="arc" />
    <path
       sodipodi:type="arc"
       style="fill:#ffffff;stroke:none"
       id="path3106"
       sodipodi:cx="168"
       sodipodi:cy="256"
       sodipodi:rx="24"
       sodipodi:ry="32"
       d="m 192,256 a 24,32 0 1 1 -48,0 24,32 0 1 1 48,0 z"
       transform="matrix(0.48816102,-0.13080235,0.13080235,0.48816102,204.97057,156.7293)" />
    <path
       sodipodi:type="arc"
       style="fill:#ffffff;stroke:none"
       id="path3108"
       sodipodi:cx="168"
       sodipodi:cy="256"
       sodipodi:rx="24"
       sodipodi:ry="32"
       d="m 192,256 a 24,32 0 1 1 -48,0 24,32 0 1 1 48,0 z"
       transform="matrix(0.1594849,-0.09207865,0.09207865,0.1594849,154.10147,269.79339)" />
    <path
       transform="matrix(0.1582787,-0.09138227,0.09138227,0.1582787,256.48239,269.98518)"
       d="m 192,256 a 24,32 0 1 1 -48,0 24,32 0 1 1 48,0 z"
       sodipodi:ry="32"
       sodipodi:rx="24"
       sodipodi:cy="256"
       sodipodi:cx="168"
       id="path3110"
       style="fill:#ffffff;stroke:none"
       sodipodi:type="arc" />
  </g>
  <g
     inkscape:label="eyes closed"
     id="g4056"
     inkscape:groupmode="layer"
     style="display:none">
    <path
       style="fill:none;stroke:#000000;stroke-width:18.75;stroke-linecap:butt;stroke-linejoin:miter;stroke-miterlimit:4;stroke-opacity:1;stroke-dasharray:none"
       d="m 180,270 64,0"
       id="path4062"
       inkscape:connector-curvature="0" />
    <path
       style="fill:none;stroke:#000000;stroke-width:18.75;stroke-linecap:butt;stroke-linejoin:miter;stroke-miterlimit:4;stroke-opacity:1;stroke-dasharray:none"
       d="m 284,270 64,0"
       id="path4064"
       inkscape:connector-curvature="0" />
  </g>
  <g
     inkscape:groupmode="layer"
     id="layer5"
     inkscape:label="eyebrows normal"
     style="display:inline">
    <path
       style="fill:none;stroke:#000000;stroke-width:18.75;stroke-linecap:butt;stroke-linejoin:miter;stroke-miterlimit:4;stroke-opacity:1;stroke-dasharray:none"
       d="m 180.04145,219.62812 63.9171,-3.25624"
       id="path3837"
       inkscape:connector-curvature="0" />
    <path
       inkscape:connector-curvature="0"
       id="path3839"
       d="m 284.04129,216.37505 63.91742,3.2499"
       style="fill:none;stroke:#000000;stroke-width:18.75;stroke-linecap:butt;stroke-linejoin:miter;stroke-miterlimit:4;stroke-opacity:1;stroke-dasharray:none" />
  </g>
  <g
     style="display:none"
     inkscape:groupmode="layer"
     id="g3992"
     inkscape:label="eyebrows happy">
    <path
       sodipodi:nodetypes="cc"
       style="fill:none;stroke:#000000;stroke-width:18.75;stroke-linecap:butt;stroke-linejoin:miter;stroke-miterlimit:4;stroke-opacity:1;stroke-dasharray:none"
       d="m 172,218 c 16.33173,-7.33397 11.18159,-23.2607 64,-16"
       id="path3994"
       inkscape:connector-curvature="0" />
    <path
       sodipodi:nodetypes="cc"
       inkscape:connector-curvature="0"
       id="path3996"
       d="m 292,202 c 23.52551,-3.43536 45.82451,-1.96469 64,16"
       style="fill:none;stroke:#000000;stroke-width:18.75;stroke-linecap:butt;stroke-linejoin:miter;stroke-miterlimit:4;stroke-opacity:1;stroke-dasharray:none" />
  </g>
  <g
     inkscape:label="eyebrows sad"
     id="g3841"
     inkscape:groupmode="layer"
     style="display:none">
    <path
       inkscape:connector-curvature="0"
       id="path3843"
       d="m 180,218 64,-16"
       style="fill:none;stroke:#000000;stroke-width:18.75;stroke-linecap:butt;stroke-linejoin:miter;stroke-miterlimit:4;stroke-opacity:1;stroke-dasharray:none"
       sodipodi:nodetypes="cc" />
    <path
       style="fill:none;stroke:#000000;stroke-width:18.75;stroke-linecap:butt;stroke-linejoin:miter;stroke-miterlimit:4;stroke-opacity:1;stroke-dasharray:none"
       d="m 284,202 64,16"
       id="path3845"
       inkscape:connector-curvature="0"
       sodipodi:nodetypes="cc" />
  </g>
  <g
     inkscape:groupmode="layer"
     id="layer4"
     inkscape:label="mouth closed normal"
     style="display:inline">
    <path
       style="fill:none;stroke:#000000;stroke-width:18.75;stroke-linecap:butt;stroke-linejoin:miter;stroke-miterlimit:4;stroke-opacity:1;stroke-dasharray:none"
       d="m 156,368 c 84.07968,4.07968 135.53111,3.53111 212,0"
       id="path3794"
       inkscape:connector-curvature="0"
       sodipodi:nodetypes="cc" />
  </g>
  <g
     style="display:none"
     inkscape:label="mouth closed happy"
     id="g3251"
     inkscape:groupmode="layer">
    <path
       inkscape:connector-curvature="0"
       id="path3253"
       d="m 144,368 c 84.58182,32.07276 162.96187,20.73308 240,0"
       style="fill:none;stroke:#000000;stroke-width:18.75;stroke-linecap:butt;stroke-linejoin:miter;stroke-miterlimit:4;stroke-opacity:1;stroke-dasharray:none"
       sodipodi:nodetypes="cc" />
  </g>
  <g
     inkscape:groupmode="layer"
     id="g3255"
     inkscape:label="mouth closed sad"
     style="display:none">
    <path
       style="fill:none;stroke:#000000;stroke-width:18.75;stroke-linecap:butt;stroke-linejoin:miter;stroke-miterlimit:4;stroke-opacity:1;stroke-dasharray:none"
       d="m 144,376 c 80,-18.35857 160,-15.89 240,0"
       id="path3257"
       inkscape:connector-curvature="0"
       sodipodi:nodetypes="cc" />
  </g>
  <g
     inkscape:label="talk normal"
     id="g3796"
     inkscape:groupmode="layer"
     style="display:none">
    <path
       sodipodi:type="arc"
       style="fill:#000000;stroke:#000000;stroke-width:18.75;stroke-miterlimit:4;stroke-dasharray:none"
       id="path3828"
       sodipodi:cx="256"
       sodipodi:cy="376"
       sodipodi:rx="64"
       sodipodi:ry="24"
       d="m 320,376 a 64,24 0 1 1 -128,0 64,24 0 1 1 128,0 z"
       transform="translate(4,0)" />
  </g>
  <g
     style="display:none"
     inkscape:label="talk happy"
     id="g3802"
     inkscape:groupmode="layer">
    <path
       style="fill:#000000;stroke:#000000;stroke-width:18.75;stroke-linecap:butt;stroke-linejoin:round;stroke-miterlimit:4;stroke-opacity:1;stroke-dasharray:none"
       d="m 123.56349,353.57256 256,-1.78571 0,2 c -86.83514,78.09372 -171.85065,61.56701 -256,0 l 0,-9.46429"
       id="path3808"
       inkscape:connector-curvature="0"
       sodipodi:nodetypes="ccccc" />
  </g>
  <g
     inkscape:groupmode="layer"
     id="g3830"
     inkscape:label="talk sad"
     style="display:none">
    <path
       sodipodi:nodetypes="ccccc"
       inkscape:connector-curvature="0"
       id="path3832"
       d="m 153.63766,385.58888 203.4278,1.84699 0,-2.04744 c -69.00266,-79.94595 -136.55937,-63.02725 -203.4278,0 l 0,9.68876"
       style="fill:#000000;stroke:#000000;stroke-width:18.75;stroke-linecap:butt;stroke-linejoin:round;stroke-miterlimit:4;stroke-opacity:1;stroke-dasharray:none" />
  </g>
  <g
     style="display:inline"
     inkscape:label="hair 1 brown"
     id="g3901"
     inkscape:groupmode="layer">
    <path
       sodipodi:nodetypes="cccc"
       inkscape:connector-curvature="0"
       id="path3903"
       d="m 181.89847,147.1929 c -92.277704,100.92792 -105.751783,134.72683 -127.999995,176 -18.747014,-32.19239 -66.37558,-142.77658 63.999995,-176 27.31147,-7.97085 44.19731,-2.04085 64,0"
       style="fill:#a05a2c;stroke:#502d16;stroke-width:18.75;stroke-linecap:butt;stroke-linejoin:miter;stroke-miterlimit:4;stroke-opacity:1;stroke-dasharray:none" />
    <path
       sodipodi:nodetypes="ccc"
       inkscape:connector-curvature="0"
       id="path3905"
       d="m 166,158 c 90.99086,24.8564 190.31667,22.45929 304,128 C 485.27194,76.791493 138.57966,37.347521 166,158 z"
       style="fill:#a05a2c;stroke:#502d16;stroke-width:18.75;stroke-linecap:butt;stroke-linejoin:miter;stroke-miterlimit:4;stroke-opacity:1;stroke-dasharray:none" />
  </g>
  <g
     inkscape:groupmode="layer"
     id="g3907"
     inkscape:label="hair 1 blonde"
     style="display:none">
    <path
       style="fill:#d3bc5f;stroke:#786721;stroke-width:18.75;stroke-linecap:butt;stroke-linejoin:miter;stroke-miterlimit:4;stroke-opacity:1;stroke-dasharray:none"
       d="m 181.89847,147.1929 c -92.277704,100.92792 -105.751783,134.72683 -127.999995,176 -18.747014,-32.19239 -66.37558,-142.77658 63.999995,-176 27.31147,-7.97085 44.19731,-2.04085 64,0"
       id="path3909"
       inkscape:connector-curvature="0"
       sodipodi:nodetypes="cccc" />
    <path
       style="fill:#d3bc5f;stroke:#786721;stroke-width:18.75;stroke-linecap:butt;stroke-linejoin:miter;stroke-miterlimit:4;stroke-opacity:1;stroke-dasharray:none"
       d="m 166,158 c 90.99086,24.8564 190.31667,22.45929 304,128 C 485.27194,76.791493 138.57966,37.347521 166,158 z"
       id="path3911"
       inkscape:connector-curvature="0"
       sodipodi:nodetypes="ccc" />
  </g>
  <g
     style="display:none"
     inkscape:label="hair 1 black"
     id="g3913"
     inkscape:groupmode="layer">
    <path
       sodipodi:nodetypes="cccc"
       inkscape:connector-curvature="0"
       id="path3915"
       d="m 181.89847,147.1929 c -92.277704,100.92792 -105.751783,134.72683 -127.999995,176 -18.747014,-32.19239 -66.37558,-142.77658 63.999995,-176 27.31147,-7.97085 44.19731,-2.04085 64,0"
       style="fill:#333333;stroke:#1a1a1a;stroke-width:18.75;stroke-linecap:butt;stroke-linejoin:miter;stroke-miterlimit:4;stroke-opacity:1;stroke-dasharray:none" />
    <path
       sodipodi:nodetypes="ccc"
       inkscape:connector-curvature="0"
       id="path3917"
       d="m 166,158 c 90.99086,24.8564 190.31667,22.45929 304,128 C 485.27194,76.791493 138.57966,37.347521 166,158 z"
       style="fill:#333333;stroke:#1a1a1a;stroke-width:18.75;stroke-linecap:butt;stroke-linejoin:miter;stroke-miterlimit:4;stroke-opacity:1;stroke-dasharray:none" />
  </g>
  <g
     inkscape:groupmode="layer"
     id="g3919"
     inkscape:label="hair 1 red"
     style="display:none">
    <path
       style="fill:#aa4400;stroke:#552200;stroke-width:18.75;stroke-linecap:butt;stroke-linejoin:miter;stroke-miterlimit:4;stroke-opacity:1;stroke-dasharray:none"
       d="m 181.89847,147.1929 c -92.277704,100.92792 -105.751783,134.72683 -127.999995,176 -18.747014,-32.19239 -66.37558,-142.77658 63.999995,-176 27.31147,-7.97085 44.19731,-2.04085 64,0"
       id="path3921"
       inkscape:connector-curvature="0"
       sodipodi:nodetypes="cccc" />
    <path
       style="fill:#aa4400;stroke:#552200;stroke-width:18.75;stroke-linecap:butt;stroke-linejoin:miter;stroke-miterlimit:4;stroke-opacity:1;stroke-dasharray:none"
       d="m 166,158 c 90.99086,24.8564 190.31667,22.45929 304,128 C 485.27194,76.791493 138.57966,37.347521 166,158 z"
       id="path3923"
       inkscape:connector-curvature="0"
       sodipodi:nodetypes="ccc" />
  </g>
  <g
     inkscape:groupmode="layer"
     id="g3782"
     inkscape:label="hair 1 white"
     style="display:none">
    <path
       style="fill:#e6e6e6;stroke:#999999;stroke-width:18.75;stroke-linecap:butt;stroke-linejoin:miter;stroke-miterlimit:4;stroke-opacity:1;stroke-dasharray:none"
       d="m 181.89847,147.1929 c -92.277704,100.92792 -105.751783,134.72683 -127.999995,176 -18.747014,-32.19239 -66.37558,-142.77658 63.999995,-176 27.31147,-7.97085 44.19731,-2.04085 64,0"
       id="path3784"
       inkscape:connector-curvature="0"
       sodipodi:nodetypes="cccc" />
    <path
       style="fill:#e6e6e6;stroke:#999999;stroke-width:18.75;stroke-linecap:butt;stroke-linejoin:miter;stroke-miterlimit:4;stroke-opacity:1;stroke-dasharray:none"
       d="m 166,158 c 90.99086,24.8564 190.31667,22.45929 304,128 C 485.27194,76.791493 138.57966,37.347521 166,158 z"
       id="path3786"
       inkscape:connector-curvature="0"
       sodipodi:nodetypes="ccc" />
  </g>
  <g
     inkscape:label="hair 2 brown"
     id="g3847"
     inkscape:groupmode="layer"
     style="display:none">
    <path
       style="fill:#a05a2c;stroke:#502d16;stroke-width:18.75;stroke-linecap:butt;stroke-linejoin:miter;stroke-miterlimit:4;stroke-opacity:1;stroke-dasharray:none"
       d="M 48,288 C 8.986044,369.94449 19.57699,419.88581 64,448 l 64,0 C 72.062887,379.3266 113.95031,300.17199 128,224 l -80,64"
       id="path3857"
       inkscape:connector-curvature="0"
       sodipodi:nodetypes="ccccc" />
    <path
       style="fill:#a05a2c;stroke:#502d16;stroke-width:18.75;stroke-linecap:butt;stroke-linejoin:miter;stroke-miterlimit:4;stroke-opacity:1;stroke-dasharray:none"
       d="M 272,152 C 100.2259,212.78224 114.634,243.94459 48,288 14.573709,222.54867 76.792615,87.200741 208,88 c 74.75722,-4.457507 64.39317,32.17801 64,64 z"
       id="path3853"
       inkscape:connector-curvature="0"
       sodipodi:nodetypes="cccc" />
    <path
       sodipodi:nodetypes="ccccc"
       inkscape:connector-curvature="0"
       id="path3859"
       d="m 475.92446,288 c 39.01396,81.94449 28.42301,131.88581 -16,160 l -63.99999,0 c 55.93711,-68.6734 14.04969,-147.82801 0,-224 l 79.99999,64"
       style="fill:#a05a2c;stroke:#502d16;stroke-width:18.75;stroke-linecap:butt;stroke-linejoin:miter;stroke-miterlimit:4;stroke-opacity:1;stroke-dasharray:none" />
    <path
       sodipodi:nodetypes="cccc"
       inkscape:connector-curvature="0"
       id="path3855"
       d="m 244.04072,152 c 108.8329,28.47644 163.15465,88.1021 238,136 32.89254,-63.67416 -44.52857,-207.980829 -174,-200 -68.1045,-5.952786 -58.15994,33.5512 -64,64 z"
       style="fill:#a05a2c;stroke:#502d16;stroke-width:18.75;stroke-linecap:butt;stroke-linejoin:miter;stroke-miterlimit:4;stroke-opacity:1;stroke-dasharray:none" />
  </g>
  <g
     inkscape:groupmode="layer"
     id="g3861"
     inkscape:label="hair 2 blonde"
     style="display:none">
    <path
       sodipodi:nodetypes="ccccc"
       inkscape:connector-curvature="0"
       id="path3863"
       d="M 48,288 C 8.986044,369.94449 19.57699,419.88581 64,448 l 64,0 C 72.062887,379.3266 113.95031,300.17199 128,224 l -80,64"
       style="fill:#c8ab37;stroke:#786721;stroke-width:18.75;stroke-linecap:butt;stroke-linejoin:miter;stroke-miterlimit:4;stroke-opacity:1;stroke-dasharray:none" />
    <path
       sodipodi:nodetypes="cccc"
       inkscape:connector-curvature="0"
       id="path3865"
       d="M 272,152 C 100.2259,212.78224 114.634,243.94459 48,288 14.573709,222.54867 76.792615,87.200741 208,88 c 74.75722,-4.457507 64.39317,32.17801 64,64 z"
       style="fill:#c8ab37;stroke:#786721;stroke-width:18.75;stroke-linecap:butt;stroke-linejoin:miter;stroke-miterlimit:4;stroke-opacity:1;stroke-dasharray:none" />
    <path
       style="fill:#c8ab37;stroke:#786721;stroke-width:18.75;stroke-linecap:butt;stroke-linejoin:miter;stroke-miterlimit:4;stroke-opacity:1;stroke-dasharray:none"
       d="m 475.92446,288 c 39.01396,81.94449 28.42301,131.88581 -16,160 l -63.99999,0 c 55.93711,-68.6734 14.04969,-147.82801 0,-224 l 79.99999,64"
       id="path3869"
       inkscape:connector-curvature="0"
       sodipodi:nodetypes="ccccc" />
    <path
       style="fill:#c8ab37;stroke:#786721;stroke-width:18.75;stroke-linecap:butt;stroke-linejoin:miter;stroke-miterlimit:4;stroke-opacity:1;stroke-dasharray:none"
       d="m 244.04072,152 c 108.8329,28.47644 163.15465,88.1021 238,136 32.89254,-63.67416 -44.52857,-207.980829 -174,-200 -68.1045,-5.952786 -58.15994,33.5512 -64,64 z"
       id="path3867"
       inkscape:connector-curvature="0"
       sodipodi:nodetypes="cccc" />
  </g>
  <g
     inkscape:label="hair 2 black"
     id="g3871"
     inkscape:groupmode="layer"
     style="display:none">
    <path
       style="fill:#333333;stroke:#1a1a1a;stroke-width:18.75;stroke-linecap:butt;stroke-linejoin:miter;stroke-miterlimit:4;stroke-opacity:1;stroke-dasharray:none"
       d="M 48,288 C 8.986044,369.94449 19.57699,419.88581 64,448 l 64,0 C 72.062887,379.3266 113.95031,300.17199 128,224 l -80,64"
       id="path3873"
       inkscape:connector-curvature="0"
       sodipodi:nodetypes="ccccc" />
    <path
       style="fill:#333333;stroke:#1a1a1a;stroke-width:18.75;stroke-linecap:butt;stroke-linejoin:miter;stroke-miterlimit:4;stroke-opacity:1;stroke-dasharray:none"
       d="M 272,152 C 100.2259,212.78224 114.634,243.94459 48,288 14.573709,222.54867 76.792615,87.200741 208,88 c 74.75722,-4.457507 64.39317,32.17801 64,64 z"
       id="path3875"
       inkscape:connector-curvature="0"
       sodipodi:nodetypes="cccc" />
    <path
       sodipodi:nodetypes="ccccc"
       inkscape:connector-curvature="0"
       id="path3879"
       d="m 475.92446,288 c 39.01396,81.94449 28.42301,131.88581 -16,160 l -63.99999,0 c 55.93711,-68.6734 14.04969,-147.82801 0,-224 l 79.99999,64"
       style="fill:#333333;stroke:#1a1a1a;stroke-width:18.75;stroke-linecap:butt;stroke-linejoin:miter;stroke-miterlimit:4;stroke-opacity:1;stroke-dasharray:none" />
    <path
       sodipodi:nodetypes="cccc"
       inkscape:connector-curvature="0"
       id="path3877"
       d="m 244.04072,152 c 108.8329,28.47644 163.15465,88.1021 238,136 32.89254,-63.67416 -44.52857,-207.980829 -174,-200 -68.1045,-5.952786 -58.15994,33.5512 -64,64 z"
       style="fill:#333333;stroke:#1a1a1a;stroke-width:18.75;stroke-linecap:butt;stroke-linejoin:miter;stroke-miterlimit:4;stroke-opacity:1;stroke-dasharray:none" />
  </g>
  <g
     inkscape:groupmode="layer"
     id="g3881"
     inkscape:label="hair 2 red"
     style="display:none">
    <path
       sodipodi:nodetypes="ccccc"
       inkscape:connector-curvature="0"
       id="path3883"
       d="M 48,288 C 8.986044,369.94449 19.57699,419.88581 64,448 l 64,0 C 72.062887,379.3266 113.95031,300.17199 128,224 l -80,64"
       style="fill:#d45500;stroke:#803300;stroke-width:18.75;stroke-linecap:butt;stroke-linejoin:miter;stroke-miterlimit:4;stroke-opacity:1;stroke-dasharray:none" />
    <path
       sodipodi:nodetypes="cccc"
       inkscape:connector-curvature="0"
       id="path3885"
       d="M 272,152 C 100.2259,212.78224 114.634,243.94459 48,288 14.573709,222.54867 76.792615,87.200741 208,88 c 74.75722,-4.457507 64.39317,32.17801 64,64 z"
       style="fill:#d45500;stroke:#803300;stroke-width:18.75;stroke-linecap:butt;stroke-linejoin:miter;stroke-miterlimit:4;stroke-opacity:1;stroke-dasharray:none" />
    <path
       style="fill:#d45500;stroke:#803300;stroke-width:18.75;stroke-linecap:butt;stroke-linejoin:miter;stroke-miterlimit:4;stroke-opacity:1;stroke-dasharray:none"
       d="m 475.92446,288 c 39.01396,81.94449 28.42301,131.88581 -16,160 l -63.99999,0 c 55.93711,-68.6734 14.04969,-147.82801 0,-224 l 79.99999,64"
       id="path3889"
       inkscape:connector-curvature="0"
       sodipodi:nodetypes="ccccc" />
    <path
       style="fill:#d45500;stroke:#803300;stroke-width:18.75;stroke-linecap:butt;stroke-linejoin:miter;stroke-miterlimit:4;stroke-opacity:1;stroke-dasharray:none"
       d="m 244.04072,152 c 108.8329,28.47644 163.15465,88.1021 238,136 32.89254,-63.67416 -44.52857,-207.980829 -174,-200 -68.1045,-5.952786 -58.15994,33.5512 -64,64 z"
       id="path3887"
       inkscape:connector-curvature="0"
       sodipodi:nodetypes="cccc" />
  </g>
  <g
     inkscape:label="hair 2 white"
     id="g3891"
     inkscape:groupmode="layer"
     style="display:none">
    <path
       style="fill:#e6e6e6;stroke:#b3b3b3;stroke-width:18.75;stroke-linecap:butt;stroke-linejoin:miter;stroke-miterlimit:4;stroke-opacity:1;stroke-dasharray:none"
       d="M 48,288 C 8.986044,369.94449 19.57699,419.88581 64,448 l 64,0 C 72.062887,379.3266 113.95031,300.17199 128,224 l -80,64"
       id="path3893"
       inkscape:connector-curvature="0"
       sodipodi:nodetypes="ccccc" />
    <path
       style="fill:#e6e6e6;stroke:#b3b3b3;stroke-width:18.75;stroke-linecap:butt;stroke-linejoin:miter;stroke-miterlimit:4;stroke-opacity:1;stroke-dasharray:none"
       d="M 272,152 C 100.2259,212.78224 114.634,243.94459 48,288 14.573709,222.54867 76.792615,87.200741 208,88 c 74.75722,-4.457507 64.39317,32.17801 64,64 z"
       id="path3895"
       inkscape:connector-curvature="0"
       sodipodi:nodetypes="cccc" />
    <path
       sodipodi:nodetypes="ccccc"
       inkscape:connector-curvature="0"
       id="path3899"
       d="m 475.92446,288 c 39.01396,81.94449 28.42301,131.88581 -16,160 l -63.99999,0 c 55.93711,-68.6734 14.04969,-147.82801 0,-224 l 79.99999,64"
       style="fill:#e6e6e6;stroke:#b3b3b3;stroke-width:18.75;stroke-linecap:butt;stroke-linejoin:miter;stroke-miterlimit:4;stroke-opacity:1;stroke-dasharray:none" />
    <path
       sodipodi:nodetypes="cccc"
       inkscape:connector-curvature="0"
       id="path3897"
       d="m 244.04072,152 c 108.8329,28.47644 163.15465,88.1021 238,136 32.89254,-63.67416 -44.52857,-207.980829 -174,-200 -68.1045,-5.952786 -58.15994,33.5512 -64,64 z"
       style="fill:#e6e6e6;stroke:#b3b3b3;stroke-width:18.75;stroke-linecap:butt;stroke-linejoin:miter;stroke-miterlimit:4;stroke-opacity:1;stroke-dasharray:none" />
  </g>
  <g
     inkscape:groupmode="layer"
     id="layer6"
     inkscape:label="hair 3 brown"
     style="display:none">
    <path
       style="fill:#a05a2c;stroke:#502d16;stroke-width:18.75;stroke-linecap:butt;stroke-linejoin:miter;stroke-miterlimit:4;stroke-opacity:1;stroke-dasharray:none"
       d="M 64,320 C 38.521502,285.67429 76.453019,172.28272 80,92 l 16,32 32,-48 32,48 32,-64 32,64 32,-64 32,64 32,-64 32,64 32,-48 32,48 16,-48 c 6.0016,76.6672 39.9848,177.32827 16,244 -12.69711,1.92322 -1.13212,-62.83959 -32.64819,-93.12475 C 409.89349,221.63012 390.11931,221.62827 384,208 c -15.53921,-34.60728 -27.74034,-35.39224 -64,-48 -10.50803,-3.65372 -53.08611,-0.2218 -64,0 -9.37699,0.19057 -55.42024,-3.59652 -64,0 -33.93357,14.22448 -36.57188,15.07535 -64,32 -12.44123,7.67692 -39.51979,23.61164 -48,32 -10.391285,10.27874 -2.32472,105.4378 -16,96 z"
       id="path3974"
       inkscape:connector-curvature="0"
       sodipodi:nodetypes="cccccccccccccccsssssssc" />
  </g>
  <g
     inkscape:label="hair 3 blonde"
     id="g3976"
     inkscape:groupmode="layer"
     style="display:none">
    <path
       sodipodi:nodetypes="cccccccccccccccsssssssc"
       inkscape:connector-curvature="0"
       id="path3978"
       d="M 64,320 C 38.521502,285.67429 76.453019,172.28272 80,92 l 16,32 32,-48 32,48 32,-64 32,64 32,-64 32,64 32,-64 32,64 32,-48 32,48 16,-48 c 6.0016,76.6672 39.9848,177.32827 16,244 -12.69711,1.92322 -1.13212,-62.83959 -32.64819,-93.12475 C 409.89349,221.63012 390.11931,221.62827 384,208 c -15.53921,-34.60728 -27.74034,-35.39224 -64,-48 -10.50803,-3.65372 -53.08611,-0.2218 -64,0 -9.37699,0.19057 -55.42024,-3.59652 -64,0 -33.93357,14.22448 -36.57188,15.07535 -64,32 -12.44123,7.67692 -39.51979,23.61164 -48,32 -10.391285,10.27874 -2.32472,105.4378 -16,96 z"
       style="fill:#c8ab37;stroke:#786721;stroke-width:18.75;stroke-linecap:butt;stroke-linejoin:miter;stroke-miterlimit:4;stroke-opacity:1;stroke-dasharray:none" />
  </g>
  <g
     inkscape:groupmode="layer"
     id="g3980"
     inkscape:label="hair 3 black"
     style="display:none">
    <path
       style="fill:#333333;stroke:#1a1a1a;stroke-width:18.75;stroke-linecap:butt;stroke-linejoin:miter;stroke-miterlimit:4;stroke-opacity:1;stroke-dasharray:none"
       d="M 64,320 C 38.521502,285.67429 76.453019,172.28272 80,92 l 16,32 32,-48 32,48 32,-64 32,64 32,-64 32,64 32,-64 32,64 32,-48 32,48 16,-48 c 6.0016,76.6672 39.9848,177.32827 16,244 -12.69711,1.92322 -1.13212,-62.83959 -32.64819,-93.12475 C 409.89349,221.63012 390.11931,221.62827 384,208 c -15.53921,-34.60728 -27.74034,-35.39224 -64,-48 -10.50803,-3.65372 -53.08611,-0.2218 -64,0 -9.37699,0.19057 -55.42024,-3.59652 -64,0 -33.93357,14.22448 -36.57188,15.07535 -64,32 -12.44123,7.67692 -39.51979,23.61164 -48,32 -10.391285,10.27874 -2.32472,105.4378 -16,96 z"
       id="path3982"
       inkscape:connector-curvature="0"
       sodipodi:nodetypes="cccccccccccccccsssssssc" />
  </g>
  <g
     inkscape:label="hair 3 red"
     id="g3984"
     inkscape:groupmode="layer"
     style="display:none">
    <path
       sodipodi:nodetypes="cccccccccccccccsssssssc"
       inkscape:connector-curvature="0"
       id="path3986"
       d="M 64,320 C 38.521502,285.67429 76.453019,172.28272 80,92 l 16,32 32,-48 32,48 32,-64 32,64 32,-64 32,64 32,-64 32,64 32,-48 32,48 16,-48 c 6.0016,76.6672 39.9848,177.32827 16,244 -12.69711,1.92322 -1.13212,-62.83959 -32.64819,-93.12475 C 409.89349,221.63012 390.11931,221.62827 384,208 c -15.53921,-34.60728 -27.74034,-35.39224 -64,-48 -10.50803,-3.65372 -53.08611,-0.2218 -64,0 -9.37699,0.19057 -55.42024,-3.59652 -64,0 -33.93357,14.22448 -36.57188,15.07535 -64,32 -12.44123,7.67692 -39.51979,23.61164 -48,32 -10.391285,10.27874 -2.32472,105.4378 -16,96 z"
       style="fill:#aa4400;stroke:#552200;stroke-width:18.75;stroke-linecap:butt;stroke-linejoin:miter;stroke-miterlimit:4;stroke-opacity:1;stroke-dasharray:none" />
  </g>
  <g
     style="display:none"
     inkscape:groupmode="layer"
     id="g3988"
     inkscape:label="hair 3 white">
    <path
       style="fill:#e6e6e6;stroke:#b3b3b3;stroke-width:18.75;stroke-linecap:butt;stroke-linejoin:miter;stroke-miterlimit:4;stroke-opacity:1;stroke-dasharray:none"
       d="M 64,320 C 38.521502,285.67429 76.453019,172.28272 80,92 l 16,32 32,-48 32,48 32,-64 32,64 32,-64 32,64 32,-64 32,64 32,-48 32,48 16,-48 c 6.0016,76.6672 39.9848,177.32827 16,244 -12.69711,1.92322 -1.13212,-62.83959 -32.64819,-93.12475 C 409.89349,221.63012 390.11931,221.62827 384,208 c -15.53921,-34.60728 -27.74034,-35.39224 -64,-48 -10.50803,-3.65372 -53.08611,-0.2218 -64,0 -9.37699,0.19057 -55.42024,-3.59652 -64,0 -33.93357,14.22448 -36.57188,15.07535 -64,32 -12.44123,7.67692 -39.51979,23.61164 -48,32 -10.391285,10.27874 -2.32472,105.4378 -16,96 z"
       id="path3990"
       inkscape:connector-curvature="0"
       sodipodi:nodetypes="cccccccccccccccsssssssc" />
  </g>
  <g
     inkscape:groupmode="layer"
     id="layer7"
     inkscape:label="hair 4 brown"
     style="display:none">
    <path
       style="fill:#a05a2c;stroke:#502d16;stroke-width:18.75;stroke-linecap:butt;stroke-linejoin:round;stroke-miterlimit:4;stroke-opacity:1;stroke-dasharray:none;display:inline"
       d="M 49.540225,298.29939 C 13.137679,425.94887 43.304297,436.7832 38.876634,465.75154 65.55851,458.58921 99.666515,404.92825 83.29511,332.05408 73.094537,313.44546 61.061027,307.66718 49.540225,298.29939"
       id="path4020"
       inkscape:connector-curvature="0"
       sodipodi:nodetypes="cccc" />
    <path
       sodipodi:nodetypes="cccc"
       inkscape:connector-curvature="0"
       id="path3903-4"
       d="M 192.98974,131.35534 C 144.4261,289.90634 81.682786,309.79967 48,336 29.495167,303.91524 44.383693,184.92077 128.98974,131.35534 c 27.31147,-7.97085 44.19731,-2.04085 64,0"
       style="fill:#a05a2c;stroke:#502d16;stroke-width:18.75;stroke-linecap:butt;stroke-linejoin:round;stroke-miterlimit:4;stroke-opacity:1;stroke-dasharray:none;display:inline" />
    <path
       sodipodi:nodetypes="ccc"
       inkscape:connector-curvature="0"
       id="path3905-2"
       d="m 177.09127,142.16244 c 90.99086,24.8564 190.31667,22.45929 304,128 15.61502,-207.630339 -319.67517,-194.624711 -304,-128 z"
       style="fill:#a05a2c;stroke:#502d16;stroke-width:18.75;stroke-linecap:butt;stroke-linejoin:round;stroke-miterlimit:4;stroke-opacity:1;stroke-dasharray:none;display:inline" />
  </g>
  <g
     style="display:none"
     inkscape:label="hair 4 blonde"
     id="g4022"
     inkscape:groupmode="layer">
    <path
       sodipodi:nodetypes="cccc"
       inkscape:connector-curvature="0"
       id="path4024"
       d="M 49.540225,298.29939 C 13.137679,425.94887 43.304297,436.7832 38.876634,465.75154 65.55851,458.58921 99.666515,404.92825 83.29511,332.05408 73.094537,313.44546 61.061027,307.66718 49.540225,298.29939"
       style="fill:#d3bc5f;stroke:#786721;stroke-width:18.75;stroke-linecap:butt;stroke-linejoin:round;stroke-miterlimit:4;stroke-opacity:1;stroke-dasharray:none;display:inline" />
    <path
       style="fill:#d3bc5f;stroke:#786721;stroke-width:18.75;stroke-linecap:butt;stroke-linejoin:round;stroke-miterlimit:4;stroke-opacity:1;stroke-dasharray:none;display:inline"
       d="M 192.98974,131.35534 C 144.4261,289.90634 81.682786,309.79967 48,336 29.495167,303.91524 44.383693,184.92077 128.98974,131.35534 c 27.31147,-7.97085 44.19731,-2.04085 64,0"
       id="path4026"
       inkscape:connector-curvature="0"
       sodipodi:nodetypes="cccc" />
    <path
       style="fill:#d3bc5f;stroke:#786721;stroke-width:18.75;stroke-linecap:butt;stroke-linejoin:round;stroke-miterlimit:4;stroke-opacity:1;stroke-dasharray:none;display:inline"
       d="m 177.09127,142.16244 c 90.99086,24.8564 190.31667,22.45929 304,128 15.61502,-207.630339 -319.67517,-194.624711 -304,-128 z"
       id="path4028"
       inkscape:connector-curvature="0"
       sodipodi:nodetypes="ccc" />
  </g>
  <g
     inkscape:groupmode="layer"
     id="g4030"
     inkscape:label="hair 4 black"
     style="display:none">
    <path
       style="fill:#333333;stroke:#1a1a1a;stroke-width:18.75;stroke-linecap:butt;stroke-linejoin:round;stroke-miterlimit:4;stroke-opacity:1;stroke-dasharray:none;display:inline"
       d="M 49.540225,298.29939 C 13.137679,425.94887 43.304297,436.7832 38.876634,465.75154 65.55851,458.58921 99.666515,404.92825 83.29511,332.05408 73.094537,313.44546 61.061027,307.66718 49.540225,298.29939"
       id="path4032"
       inkscape:connector-curvature="0"
       sodipodi:nodetypes="cccc" />
    <path
       sodipodi:nodetypes="cccc"
       inkscape:connector-curvature="0"
       id="path4034"
       d="M 192.98974,131.35534 C 144.4261,289.90634 81.682786,309.79967 48,336 29.495167,303.91524 44.383693,184.92077 128.98974,131.35534 c 27.31147,-7.97085 44.19731,-2.04085 64,0"
       style="fill:#333333;stroke:#1a1a1a;stroke-width:18.75;stroke-linecap:butt;stroke-linejoin:round;stroke-miterlimit:4;stroke-opacity:1;stroke-dasharray:none;display:inline" />
    <path
       sodipodi:nodetypes="ccc"
       inkscape:connector-curvature="0"
       id="path4036"
       d="m 177.09127,142.16244 c 90.99086,24.8564 190.31667,22.45929 304,128 15.61502,-207.630339 -319.67517,-194.624711 -304,-128 z"
       style="fill:#333333;stroke:#1a1a1a;stroke-width:18.75;stroke-linecap:butt;stroke-linejoin:round;stroke-miterlimit:4;stroke-opacity:1;stroke-dasharray:none;display:inline" />
  </g>
  <g
     style="display:none"
     inkscape:label="hair 4 red"
     id="g4038"
     inkscape:groupmode="layer">
    <path
       sodipodi:nodetypes="cccc"
       inkscape:connector-curvature="0"
       id="path4040"
       d="M 49.540225,298.29939 C 13.137679,425.94887 43.304297,436.7832 38.876634,465.75154 65.55851,458.58921 99.666515,404.92825 83.29511,332.05408 73.094537,313.44546 61.061027,307.66718 49.540225,298.29939"
       style="fill:#aa4400;stroke:#552200;stroke-width:18.75;stroke-linecap:butt;stroke-linejoin:round;stroke-miterlimit:4;stroke-opacity:1;stroke-dasharray:none;display:inline" />
    <path
       style="fill:#aa4400;stroke:#552200;stroke-width:18.75;stroke-linecap:butt;stroke-linejoin:round;stroke-miterlimit:4;stroke-opacity:1;stroke-dasharray:none;display:inline"
       d="M 192.98974,131.35534 C 144.4261,289.90634 81.682786,309.79967 48,336 29.495167,303.91524 44.383693,184.92077 128.98974,131.35534 c 27.31147,-7.97085 44.19731,-2.04085 64,0"
       id="path4042"
       inkscape:connector-curvature="0"
       sodipodi:nodetypes="cccc" />
    <path
       style="fill:#aa4400;stroke:#552200;stroke-width:18.75;stroke-linecap:butt;stroke-linejoin:round;stroke-miterlimit:4;stroke-opacity:1;stroke-dasharray:none;display:inline"
       d="m 177.09127,142.16244 c 90.99086,24.8564 190.31667,22.45929 304,128 15.61502,-207.630339 -319.67517,-194.624711 -304,-128 z"
       id="path4044"
       inkscape:connector-curvature="0"
       sodipodi:nodetypes="ccc" />
  </g>
  <g
     inkscape:groupmode="layer"
     id="g4046"
     inkscape:label="hair 4 white"
     style="display:none">
    <path
       style="fill:#e6e6e6;stroke:#999999;stroke-width:18.75;stroke-linecap:butt;stroke-linejoin:round;stroke-miterlimit:4;stroke-opacity:1;stroke-dasharray:none;display:inline"
       d="M 49.540225,298.29939 C 13.137679,425.94887 43.304297,436.7832 38.876634,465.75154 65.55851,458.58921 99.666515,404.92825 83.29511,332.05408 73.094537,313.44546 61.061027,307.66718 49.540225,298.29939"
       id="path4048"
       inkscape:connector-curvature="0"
       sodipodi:nodetypes="cccc" />
    <path
       sodipodi:nodetypes="cccc"
       inkscape:connector-curvature="0"
       id="path4050"
       d="M 192.98974,131.35534 C 144.4261,289.90634 81.682786,309.79967 48,336 29.495167,303.91524 44.383693,184.92077 128.98974,131.35534 c 27.31147,-7.97085 44.19731,-2.04085 64,0"
       style="fill:#e6e6e6;stroke:#999999;stroke-width:18.75;stroke-linecap:butt;stroke-linejoin:round;stroke-miterlimit:4;stroke-opacity:1;stroke-dasharray:none;display:inline" />
    <path
       sodipodi:nodetypes="ccc"
       inkscape:connector-curvature="0"
       id="path4052"
       d="m 177.09127,142.16244 c 90.99086,24.8564 190.31667,22.45929 304,128 15.61502,-207.630339 -319.67517,-194.624711 -304,-128 z"
       style="fill:#e6e6e6;stroke:#999999;stroke-width:18.75;stroke-linecap:butt;stroke-linejoin:round;stroke-miterlimit:4;stroke-opacity:1;stroke-dasharray:none;display:inline" />
  </g>
</svg>
