<font>
 <info size="48" face="Bitstream Vera Sans"/>
 <common lineHeight="75"/>
 <pages>
  <page id="0" file="bitstream_vera.png"/>
 </pages>
 <chars count="95">
  <char width="0" page="0" x="1" y="50" xoffset="0" chnl="0" letter="space" height="0" yoffset="75" xadvance="20" id="32"/>
  <char width="6" page="0" x="2" y="3" xoffset="10" chnl="0" letter="!" height="47" yoffset="28" xadvance="26" id="33"/>
  <char width="17" page="0" x="9" y="3" xoffset="6" chnl="0" letter="&quot;" height="17" yoffset="28" xadvance="29" id="34"/>
  <char width="44" page="0" x="27" y="4" xoffset="5" chnl="0" letter="#" height="46" yoffset="29" xadvance="54" id="35"/>
  <char width="31" page="0" x="72" y="2" xoffset="5" chnl="0" letter="$" height="57" yoffset="27" xadvance="41" id="36"/>
  <char width="54" page="0" x="104" y="2" xoffset="4" chnl="0" letter="%" height="49" yoffset="27" xadvance="61" id="37"/>
  <char width="44" page="0" x="159" y="2" xoffset="4" chnl="0" letter="&amp;" height="49" yoffset="27" xadvance="50" id="38"/>
  <char width="5" page="0" x="204" y="3" xoffset="6" chnl="0" letter="'" height="17" yoffset="28" xadvance="18" id="39"/>
  <char width="14" page="0" x="210" y="1" xoffset="6" chnl="0" letter="(" height="57" yoffset="26" xadvance="25" id="40"/>
  <char width="14" page="0" x="225" y="1" xoffset="5" chnl="0" letter=")" height="57" yoffset="26" xadvance="25" id="41"/>
  <char width="28" page="0" x="240" y="2" xoffset="2" chnl="0" letter="*" height="30" yoffset="27" xadvance="32" id="42"/>
  <char width="39" page="0" x="269" y="11" xoffset="7" chnl="0" letter="+" height="39" yoffset="36" xadvance="54" id="43"/>
  <char width="9" page="0" x="309" y="42" xoffset="5" chnl="0" letter="," height="15" yoffset="67" xadvance="20" id="44"/>
  <char width="17" page="0" x="319" y="30" xoffset="3" chnl="0" letter="-" height="5" yoffset="55" xadvance="23" id="45"/>
  <char width="6" page="0" x="337" y="42" xoffset="8" chnl="0" letter="." height="8" yoffset="67" xadvance="20" id="46"/>
  <char width="22" page="0" x="344" y="3" xoffset="0" chnl="0" letter="/" height="53" yoffset="28" xadvance="22" id="47"/>
  <char width="32" page="0" x="367" y="2" xoffset="4" chnl="0" letter="0" height="49" yoffset="27" xadvance="41" id="48"/>
  <char width="27" page="0" x="400" y="3" xoffset="7" chnl="0" letter="1" height="47" yoffset="28" xadvance="41" id="49"/>
  <char width="30" page="0" x="428" y="2" xoffset="5" chnl="0" letter="2" height="48" yoffset="27" xadvance="41" id="50"/>
  <char width="31" page="0" x="459" y="2" xoffset="5" chnl="0" letter="3" height="49" yoffset="27" xadvance="41" id="51"/>
  <char width="34" page="0" x="1" y="61" xoffset="3" chnl="0" letter="4" height="47" yoffset="28" xadvance="41" id="52"/>
  <char width="30" page="0" x="36" y="61" xoffset="5" chnl="0" letter="5" height="48" yoffset="28" xadvance="41" id="53"/>
  <char width="32" page="0" x="67" y="60" xoffset="4" chnl="0" letter="6" height="49" yoffset="27" xadvance="41" id="54"/>
  <char width="30" page="0" x="100" y="61" xoffset="5" chnl="0" letter="7" height="47" yoffset="28" xadvance="41" id="55"/>
  <char width="32" page="0" x="131" y="60" xoffset="4" chnl="0" letter="8" height="49" yoffset="27" xadvance="41" id="56"/>
  <char width="32" page="0" x="164" y="60" xoffset="4" chnl="0" letter="9" height="49" yoffset="27" xadvance="41" id="57"/>
  <char width="6" page="0" x="197" y="75" xoffset="8" chnl="0" letter=":" height="33" yoffset="42" xadvance="22" id="58"/>
  <char width="9" page="0" x="204" y="75" xoffset="5" chnl="0" letter=";" height="40" yoffset="42" xadvance="22" id="59"/>
  <char width="40" page="0" x="214" y="71" xoffset="7" chnl="0" letter="&lt;" height="34" yoffset="38" xadvance="54" id="60"/>
  <char width="40" page="0" x="255" y="79" xoffset="7" chnl="0" letter="=" height="18" yoffset="46" xadvance="54" id="61"/>
  <char width="40" page="0" x="296" y="71" xoffset="7" chnl="0" letter=">" height="34" yoffset="38" xadvance="54" id="62"/>
  <char width="25" page="0" x="337" y="60" xoffset="5" chnl="0" letter="?" height="48" yoffset="27" xadvance="34" id="63"/>
  <char width="55" page="0" x="363" y="63" xoffset="4" chnl="0" letter="@" height="56" yoffset="30" xadvance="64" id="64"/>
  <char width="43" page="0" x="419" y="61" xoffset="1" chnl="0" letter="A" height="47" yoffset="28" xadvance="44" id="65"/>
  <char width="33" page="0" x="463" y="61" xoffset="6" chnl="0" letter="B" height="47" yoffset="28" xadvance="44" id="66"/>
  <char width="38" page="0" x="1" y="120" xoffset="4" chnl="0" letter="C" height="49" yoffset="27" xadvance="45" id="67"/>
  <char width="39" page="0" x="40" y="121" xoffset="6" chnl="0" letter="D" height="47" yoffset="28" xadvance="49" id="68"/>
  <char width="30" page="0" x="80" y="121" xoffset="6" chnl="0" letter="E" height="47" yoffset="28" xadvance="40" id="69"/>
  <char width="27" page="0" x="111" y="121" xoffset="6" chnl="0" letter="F" height="47" yoffset="28" xadvance="37" id="70"/>
  <char width="41" page="0" x="139" y="120" xoffset="4" chnl="0" letter="G" height="49" yoffset="27" xadvance="50" id="71"/>
  <char width="36" page="0" x="181" y="121" xoffset="6" chnl="0" letter="H" height="47" yoffset="28" xadvance="48" id="72"/>
  <char width="6" page="0" x="218" y="121" xoffset="6" chnl="0" letter="I" height="47" yoffset="28" xadvance="19" id="73"/>
  <char width="16" page="0" x="225" y="121" xoffset="-4" chnl="0" letter="J" height="60" yoffset="28" xadvance="19" id="74"/>
  <char width="37" page="0" x="242" y="121" xoffset="6" chnl="0" letter="K" height="47" yoffset="28" xadvance="42" id="75"/>
  <char width="29" page="0" x="280" y="121" xoffset="6" chnl="0" letter="L" height="47" yoffset="28" xadvance="36" id="76"/>
  <char width="43" page="0" x="310" y="121" xoffset="6" chnl="0" letter="M" height="47" yoffset="28" xadvance="55" id="77"/>
  <char width="35" page="0" x="354" y="121" xoffset="6" chnl="0" letter="N" height="47" yoffset="28" xadvance="48" id="78"/>
  <char width="43" page="0" x="390" y="120" xoffset="4" chnl="0" letter="O" height="49" yoffset="27" xadvance="50" id="79"/>
  <char width="30" page="0" x="434" y="121" xoffset="6" chnl="0" letter="P" height="47" yoffset="28" xadvance="39" id="80"/>
  <char width="43" page="0" x="465" y="120" xoffset="4" chnl="0" letter="Q" height="56" yoffset="27" xadvance="50" id="81"/>
  <char width="36" page="0" x="1" y="184" xoffset="6" chnl="0" letter="R" height="47" yoffset="28" xadvance="44" id="82"/>
  <char width="33" page="0" x="38" y="183" xoffset="4" chnl="0" letter="S" height="49" yoffset="27" xadvance="41" id="83"/>
  <char width="40" page="0" x="72" y="184" xoffset="-1" chnl="0" letter="T" height="47" yoffset="28" xadvance="39" id="84"/>
  <char width="36" page="0" x="113" y="184" xoffset="6" chnl="0" letter="U" height="48" yoffset="28" xadvance="47" id="85"/>
  <char width="43" page="0" x="150" y="184" xoffset="1" chnl="0" letter="V" height="47" yoffset="28" xadvance="44" id="86"/>
  <char width="59" page="0" x="194" y="184" xoffset="2" chnl="0" letter="W" height="47" yoffset="28" xadvance="63" id="87"/>
  <char width="40" page="0" x="254" y="184" xoffset="2" chnl="0" letter="X" height="47" yoffset="28" xadvance="44" id="88"/>
  <char width="40" page="0" x="295" y="184" xoffset="-1" chnl="0" letter="Y" height="47" yoffset="28" xadvance="39" id="89"/>
  <char width="38" page="0" x="336" y="184" xoffset="3" chnl="0" letter="Z" height="47" yoffset="28" xadvance="44" id="90"/>
  <char width="14" page="0" x="375" y="182" xoffset="6" chnl="0" letter="[" height="57" yoffset="26" xadvance="25" id="91"/>
  <char width="22" page="0" x="390" y="184" xoffset="0" chnl="0" letter="\" height="53" yoffset="28" xadvance="22" id="92"/>
  <char width="13" page="0" x="413" y="182" xoffset="6" chnl="0" letter="]" height="57" yoffset="26" xadvance="25" id="93"/>
  <char width="40" page="0" x="427" y="184" xoffset="7" chnl="0" letter="^" height="17" yoffset="28" xadvance="54" id="94"/>
  <char width="34" page="0" x="468" y="241" xoffset="-1" chnl="0" letter="_" height="5" yoffset="85" xadvance="32" id="95"/>
  <char width="15" page="0" x="1" y="247" xoffset="5" chnl="0" letter="`" height="12" yoffset="24" xadvance="32" id="96"/>
  <char width="30" page="0" x="17" y="262" xoffset="4" chnl="0" letter="a" height="37" yoffset="39" xadvance="39" id="97"/>
  <char width="31" page="0" x="48" y="249" xoffset="6" chnl="0" letter="b" height="50" yoffset="26" xadvance="41" id="98"/>
  <char width="28" page="0" x="80" y="262" xoffset="4" chnl="0" letter="c" height="37" yoffset="39" xadvance="35" id="99"/>
  <char width="31" page="0" x="109" y="249" xoffset="4" chnl="0" letter="d" height="50" yoffset="26" xadvance="41" id="100"/>
  <char width="32" page="0" x="141" y="262" xoffset="4" chnl="0" letter="e" height="37" yoffset="39" xadvance="39" id="101"/>
  <char width="23" page="0" x="174" y="249" xoffset="1" chnl="0" letter="f" height="49" yoffset="26" xadvance="23" id="102"/>
  <char width="31" page="0" x="198" y="262" xoffset="4" chnl="0" letter="g" height="49" yoffset="39" xadvance="41" id="103"/>
  <char width="29" page="0" x="230" y="249" xoffset="6" chnl="0" letter="h" height="49" yoffset="26" xadvance="41" id="104"/>
  <char width="6" page="0" x="260" y="249" xoffset="6" chnl="0" letter="i" height="49" yoffset="26" xadvance="18" id="105"/>
  <char width="13" page="0" x="267" y="249" xoffset="-1" chnl="0" letter="j" height="62" yoffset="26" xadvance="18" id="106"/>
  <char width="31" page="0" x="281" y="249" xoffset="6" chnl="0" letter="k" height="49" yoffset="26" xadvance="37" id="107"/>
  <char width="6" page="0" x="313" y="249" xoffset="6" chnl="0" letter="l" height="49" yoffset="26" xadvance="18" id="108"/>
  <char width="50" page="0" x="320" y="262" xoffset="6" chnl="0" letter="m" height="36" yoffset="39" xadvance="62" id="109"/>
  <char width="29" page="0" x="371" y="262" xoffset="6" chnl="0" letter="n" height="36" yoffset="39" xadvance="41" id="110"/>
  <char width="32" page="0" x="401" y="262" xoffset="4" chnl="0" letter="o" height="37" yoffset="39" xadvance="39" id="111"/>
  <char width="31" page="0" x="434" y="262" xoffset="6" chnl="0" letter="p" height="49" yoffset="39" xadvance="41" id="112"/>
  <char width="31" page="0" x="466" y="262" xoffset="4" chnl="0" letter="q" height="49" yoffset="39" xadvance="41" id="113"/>
  <char width="21" page="0" x="1" y="325" xoffset="6" chnl="0" letter="r" height="36" yoffset="39" xadvance="26" id="114"/>
  <char width="27" page="0" x="23" y="325" xoffset="4" chnl="0" letter="s" height="37" yoffset="39" xadvance="33" id="115"/>
  <char width="22" page="0" x="51" y="316" xoffset="2" chnl="0" letter="t" height="45" yoffset="30" xadvance="25" id="116"/>
  <char width="29" page="0" x="74" y="326" xoffset="6" chnl="0" letter="u" height="36" yoffset="40" xadvance="41" id="117"/>
  <char width="34" page="0" x="104" y="326" xoffset="2" chnl="0" letter="v" height="35" yoffset="40" xadvance="38" id="118"/>
  <char width="47" page="0" x="139" y="326" xoffset="3" chnl="0" letter="w" height="35" yoffset="40" xadvance="52" id="119"/>
  <char width="34" page="0" x="187" y="326" xoffset="2" chnl="0" letter="x" height="35" yoffset="40" xadvance="38" id="120"/>
  <char width="34" page="0" x="222" y="326" xoffset="2" chnl="0" letter="y" height="48" yoffset="40" xadvance="38" id="121"/>
  <char width="28" page="0" x="257" y="326" xoffset="3" chnl="0" letter="z" height="35" yoffset="40" xadvance="34" id="122"/>
  <char width="25" page="0" x="286" y="312" xoffset="8" chnl="0" letter="{" height="59" yoffset="26" xadvance="41" id="123"/>
  <char width="5" page="0" x="312" y="312" xoffset="8" chnl="0" letter="|" height="64" yoffset="26" xadvance="22" id="124"/>
  <char width="25" page="0" x="318" y="312" xoffset="8" chnl="0" letter="}" height="59" yoffset="26" xadvance="41" id="125"/>
  <char width="40" page="0" x="344" y="335" xoffset="7" chnl="0" letter="~" height="11" yoffset="49" xadvance="54" id="126"/>
 </chars>
</font>
